<?xml version="1.0" encoding="utf-8"?>
<!-- Generator: Adobe Illustrator 19.1.0, SVG Export Plug-In . SVG Version: 6.00 Build 0)  -->
<svg version="1.1" id="Layer_1" xmlns="http://www.w3.org/2000/svg" xmlns:xlink="http://www.w3.org/1999/xlink" x="0px" y="0px"
	 viewBox="-197 375.9 211 42.2" style="enable-background:new -197 375.9 211 42.2;" xml:space="preserve">
<style type="text/css">
	.st0{fill:#4EB8CC;}
	.st1{fill:#F0C769;}
	.st2{fill:#E07B5E;}
	.st3{fill:#A182B6;}
	.st4{fill:#75C487;}
	.st5{fill:#75C487;stroke:#000000;stroke-miterlimit:10;}
</style>
<path class="st0" d="M-136.3,414.3v0.8l-0.2,0.6l-0.3,0.6l-0.5,0.5l-0.5,0.5l-0.6,0.3l-0.6,0.2h-0.8h-0.8l-0.6-0.2l-0.8-0.3
	l-0.5-0.5l-0.5-0.5l-0.3-0.6l-0.3-0.6v-36l0.2-0.6l0.3-0.6l0.5-0.5l0.5-0.5l0.6-0.3l0.6-0.2h0.8h0.8l0.6,0.2l0.6,0.3l0.5,0.5
	l0.5,0.5l0.3,0.6l0.2,0.6l0.2,14.5l0.2,0.5l0.3,0.3l0.5,0.3l0.5,0.2h0.5l0.5-0.2l17.7-17.5l0.6-0.5l0.8-0.3l0.9-0.2h0.8l0.6,0.2
	l0.6,0.3l0.5,0.5l0.6,1.1l0.3,1.3l-0.2,0.8l-0.3,0.6l-24.2,24l-0.6,1.1l-0.3,1.3L-136.3,414.3L-136.3,414.3z"/>
<path class="st0" d="M-111.2,411.7l0.3,0.6l0.3,0.6l0.2,0.6v0.6l-0.2,0.6l-0.3,0.6l-0.3,0.6l-0.5,0.5l-0.6,0.5l-0.6,0.3l-0.6-0.2
	h-0.6l-0.8-0.2l-0.6-0.3l-0.6-0.3l-0.5-0.5l-9.3-11.8l-0.3-0.6l-0.3-0.6l-0.2-0.6v-0.6l0.2-0.6l0.3-0.6l0.5-0.6l0.5-0.5l0.6-0.3
	l0.6-0.3l0.6-0.2h0.6l0.6,0.2l0.6,0.3l0.6,0.3l0.5,0.5L-111.2,411.7L-111.2,411.7z"/>
<path class="st1" d="M-88.6,414.6v0.8l-0.2,0.6l-0.3,0.6l-0.5,0.5l-0.5,0.5l-0.6,0.3l-0.6,0.2h-0.8h-0.8l-0.6-0.2l-0.6-0.3l-0.5-0.5
	l-0.5-0.5l-0.3-0.6l-0.2-0.6V379l0.2-0.6l0.3-0.6l0.5-0.5l0.5-0.5l0.6-0.3l0.6-0.2h0.8h0.8l0.6,0.2l0.6,0.3l0.5,0.5l0.5,0.5l0.3,0.6
	l0.2,0.6V414.6L-88.6,414.6z"/>
<polygon class="st2" points="1.4,402.1 4.2,408.6 -5.7,405.4 -6.5,405.4 -7.1,405.6 -7.8,405.7 -8.4,406.2 -8.9,406.7 -9.2,407.1 
	-9.5,407.9 -9.7,408.6 -9.7,409.4 -9.7,410 -9.3,410.6 -9,411.3 -8.5,411.7 -7.9,412.2 9.9,417.9 11,417.9 11.8,417.7 12.8,417.1 
	13.6,416.1 14,415 14,414.1 -1.9,378.1 -2.9,377 -3.8,376.3 -5.2,375.9 -7,375.9 -8.4,376.3 -9.5,377 -10.3,378.1 -26.2,413.5 
	-26.4,414.4 -26.4,415.2 -26.1,415.8 -25.8,416.5 -25.5,416.9 -25,417.3 -24.3,417.6 -23.7,417.9 -22.4,417.9 -21.5,417.6 
	-20.6,416.9 -19.9,416.1 -7,386.4 -6.8,386.3 -6.5,386.1 -6.2,386.1 -5.9,386.1 -5.7,386.3 -5.4,386.4 "/>
<polygon class="st3" points="-52.1,383.1 -49.1,384.1 -47.9,384.9 -46.9,385.8 -46.1,386.9 -45.8,388.3 -45.7,391.3 -46.1,392.6 
	-46.8,393.7 -47.7,394.8 -50.1,396.1 -53.3,396.7 -53.3,396.9 -54.4,397 -55.1,397.5 -55.5,397.7 -56.1,398.9 -56.4,399.7 
	-56.4,400.7 -56.1,402.1 -44.9,416.8 -44.1,417.3 -43.1,417.7 -42,417.9 -40.8,417.6 -39.7,416.9 -39.2,416.5 -38.9,415.8 
	-38.6,415.2 -38.6,414.1 -38.7,413.3 -46.8,402.9 -46.8,402.6 -46.9,402.2 -46.8,402.1 -46.8,401.8 -46.6,401.6 -46.5,401.5 
	-44.4,400.5 -41.6,398.3 -39.5,395.5 -38.4,391.7 -38.6,386.9 -39.2,384.6 -40.3,382.3 -41.7,380.6 -43.9,378.9 -46.6,377.6 
	-49.9,376.8 -68.9,376.5 -69.7,376.8 -70.3,377.1 -71.3,378.1 -71.6,378.7 -71.7,379.3 -71.7,414.4 -71.6,415 -71.3,415.7 
	-70.3,416.6 -69,417.3 -68.4,417.3 -67.6,417.3 -66.8,416.9 -66.2,416.6 -65.3,415.5 -64.6,414.3 -64.6,384.6 -64.5,384.2 
	-64.3,383.9 -63.8,383.3 -63.4,383.1 -63,383.1 "/>
<polygon class="st4" points="-176.9,375.9 -178.4,376 -179.6,376.7 -180.6,377.6 -197,413.9 -197,414.4 -197,415.2 -196.8,415.8 
	-196.5,416.5 -196.1,416.9 -195.6,417.3 -195.1,417.6 -194.5,417.9 -193.2,417.9 -192.1,417.6 -191.3,416.9 -190.7,416.1 
	-177.7,386.4 -177.4,386.3 -177.3,386.1 -176.9,386.1 -176.6,386.1 -176.3,386.3 -176.1,386.4 -166.5,408.6 -176.5,405.4 
	-177.1,405.4 -177.7,405.6 -178.4,405.7 -179,406.2 -179.5,406.7 -179.9,407.1 -180.3,407.9 -180.4,408.6 -180.4,409.4 -180.3,410 
	-180.1,410.6 -179.6,411.3 -179.1,411.7 -178.7,412.2 -161,417.9 -159.9,417.9 -158.3,417.4 -157.4,416.6 -156.9,415.7 
	-156.6,414.4 -156.6,414.4 -172.7,378.1 -173.5,377 -174.6,376.3 -175.8,375.9 "/>
<path class="st5" d="M-185.6,404.8"/>
<path class="st5" d="M-187.2,408.4"/>
<path class="st5" d="M-188.5,411.1"/>
</svg>
